module gitlab.com/rpsingh21/microservice/chat

go 1.16

require (
	github.com/CloudyKit/jet/v6 v6.0.2
	github.com/bmizerany/pat v0.0.0-20170815010413-6226ea591a40
	github.com/gorilla/websocket v1.4.2
)
