module gitlab.com/rpsingh21/microservice/greet

go 1.16

require (
	golang.org/x/net v0.0.0-20210525063256-abc453219eb5 // indirect
	golang.org/x/sys v0.0.0-20210603125802-9665404d3644 // indirect
	google.golang.org/genproto v0.0.0-20210604141403-392c879c8b08 // indirect
	google.golang.org/grpc v1.38.0
	google.golang.org/protobuf v1.26.0
)
